digraph "dependency-graph" {
    graph[rankdir="LR"]
    edge [
        arrowtail="none"
    ]
    "com.example:hello_2.12:0.1.0-SNAPSHOT"[label=<com.example<BR/><B>hello_2.12</B><BR/>0.1.0-SNAPSHOT> style=""]
    "org.apache.geode:geode-core:1.1.1"[label=<org.apache.geode<BR/><B>geode-core</B><BR/>1.1.1> style=""]
    "org.apache.geode:geode-json:1.1.1"[label=<org.apache.geode<BR/><B>geode-json</B><BR/>1.1.1> style=""]
    "org.apache.geode:geode-common:1.1.1"[label=<org.apache.geode<BR/><B>geode-common</B><BR/>1.1.1> style=""]
    "org.apache.shiro:shiro-core:1.3.1"[label=<org.apache.shiro<BR/><B>shiro-core</B><BR/>1.3.1> style=""]
    "commons-beanutils:commons-beanutils:1.8.3"[label=<commons-beanutils<BR/><B>commons-beanutils</B><BR/>1.8.3> style=""]
    "org.slf4j:slf4j-api:1.6.4"[label=<org.slf4j<BR/><B>slf4j-api</B><BR/>1.6.4> style=""]
    "org.apache.logging.log4j:log4j-core:2.6.1"[label=<org.apache.logging.log4j<BR/><B>log4j-core</B><BR/>2.6.1> style=""]
    "org.apache.logging.log4j:log4j-api:2.6.1"[label=<org.apache.logging.log4j<BR/><B>log4j-api</B><BR/>2.6.1> style=""]
    "net.sf.jopt-simple:jopt-simple:5.0.1"[label=<net.sf.jopt-simple<BR/><B>jopt-simple</B><BR/>5.0.1> style=""]
    "net.java.dev.jna:jna:4.0.0"[label=<net.java.dev.jna<BR/><B>jna</B><BR/>4.0.0> style=""]
    "javax.resource:javax.resource-api:1.7"[label=<javax.resource<BR/><B>javax.resource-api</B><BR/>1.7> style=""]
    "javax.transaction:javax.transaction-api:1.2"[label=<javax.transaction<BR/><B>javax.transaction-api</B><BR/>1.2> style=""]
    "it.unimi.dsi:fastutil:7.0.2"[label=<it.unimi.dsi<BR/><B>fastutil</B><BR/>7.0.2> style=""]
    "commons-lang:commons-lang:2.5"[label=<commons-lang<BR/><B>commons-lang</B><BR/>2.5> style=""]
    "commons-io:commons-io:2.3"[label=<commons-io<BR/><B>commons-io</B><BR/>2.3> style=""]
    "antlr:antlr:2.7.7"[label=<antlr<BR/><B>antlr</B><BR/>2.7.7> style=""]
    "org.jgroups:jgroups:3.6.10.Final"[label=<org.jgroups<BR/><B>jgroups</B><BR/>3.6.10.Final> style=""]
    "com.github.stephenc.findbugs:findbugs-annotations:1.3.9-1"[label=<com.github.stephenc.findbugs<BR/><B>findbugs-annotations</B><BR/>1.3.9-1> style=""]
    "org.mozilla:rhino:1.7.13"[label=<org.mozilla<BR/><B>rhino</B><BR/>1.7.13> style=""]
    "com.fasterxml.jackson.core:jackson-databind:2.9.2"[label=<com.fasterxml.jackson.core<BR/><B>jackson-databind</B><BR/>2.9.2> style=""]
    "com.fasterxml.jackson.core:jackson-databind:2.8.2"[label=<com.fasterxml.jackson.core<BR/><B>jackson-databind</B><BR/>2.8.2> style="stroke-dasharray: 5,5"]
    "com.fasterxml.jackson.core:jackson-core:2.9.2"[label=<com.fasterxml.jackson.core<BR/><B>jackson-core</B><BR/>2.9.2> style=""]
    "com.fasterxml.jackson.core:jackson-annotations:2.9.0"[label=<com.fasterxml.jackson.core<BR/><B>jackson-annotations</B><BR/>2.9.0> style=""]
    "com.example:hello_2.12:0.1.0-SNAPSHOT" -> "org.apache.geode:geode-core:1.1.1"
    "org.apache.geode:geode-core:1.1.1" -> "org.apache.geode:geode-json:1.1.1"
    "org.apache.geode:geode-core:1.1.1" -> "org.apache.geode:geode-common:1.1.1"
    "org.apache.geode:geode-core:1.1.1" -> "org.apache.shiro:shiro-core:1.3.1"
    "org.apache.shiro:shiro-core:1.3.1" -> "commons-beanutils:commons-beanutils:1.8.3"
    "org.apache.shiro:shiro-core:1.3.1" -> "org.slf4j:slf4j-api:1.6.4"
    "org.apache.geode:geode-core:1.1.1" -> "org.apache.logging.log4j:log4j-core:2.6.1"
    "org.apache.geode:geode-core:1.1.1" -> "org.apache.logging.log4j:log4j-api:2.6.1"
    "org.apache.geode:geode-core:1.1.1" -> "net.sf.jopt-simple:jopt-simple:5.0.1"
    "org.apache.geode:geode-core:1.1.1" -> "net.java.dev.jna:jna:4.0.0"
    "org.apache.geode:geode-core:1.1.1" -> "javax.resource:javax.resource-api:1.7"
    "javax.resource:javax.resource-api:1.7" -> "javax.transaction:javax.transaction-api:1.2"
    "org.apache.geode:geode-core:1.1.1" -> "it.unimi.dsi:fastutil:7.0.2"
    "org.apache.geode:geode-core:1.1.1" -> "commons-lang:commons-lang:2.5"
    "org.apache.geode:geode-core:1.1.1" -> "commons-io:commons-io:2.3"
    "org.apache.geode:geode-core:1.1.1" -> "antlr:antlr:2.7.7"
    "org.apache.geode:geode-core:1.1.1" -> "org.jgroups:jgroups:3.6.10.Final"
    "org.apache.geode:geode-core:1.1.1" -> "com.github.stephenc.findbugs:findbugs-annotations:1.3.9-1"
    "com.example:hello_2.12:0.1.0-SNAPSHOT" -> "org.mozilla:rhino:1.7.13"
    "org.apache.geode:geode-core:1.1.1" -> "com.fasterxml.jackson.core:jackson-databind:2.8.2"
    "com.example:hello_2.12:0.1.0-SNAPSHOT" -> "com.fasterxml.jackson.core:jackson-databind:2.8.2"
    "com.fasterxml.jackson.core:jackson-databind:2.9.2" -> "com.fasterxml.jackson.core:jackson-core:2.9.2"
    "com.fasterxml.jackson.core:jackson-databind:2.9.2" -> "com.fasterxml.jackson.core:jackson-annotations:2.9.0"
    "com.fasterxml.jackson.core:jackson-databind:2.8.2" -> "com.fasterxml.jackson.core:jackson-databind:2.9.2" [label="Evicted By" style="stroke-dasharray: 5,5"]
}
