{
  "bomFormat": "CycloneDX",
  "specVersion": "1.4",
  "serialNumber": "urn:uuid:efeb0e2c-ce9b-443d-8877-39cb4bcc5e52",
  "version": 1,
  "metadata": {
    "timestamp": "2022-02-23T08:02:13Z",
    "tools": [
      {
        "vendor": "GitLab",
        "name": "Gemnasium",
        "version": "2.34.0"
      }
    ],
    "authors": [
      {
        "name": "GitLab",
        "email": "support@gitlab.com"
      }
    ],
    "properties": [
      {
        "name": "gitlab:input_file",
        "value": "yarn.lock"
      },
      {
        "name": "gitlab:package_manager",
        "value": "yarn"
      }
    ]
  },
  "components": [
    {
      "name": "acorn",
      "version": "5.7.3",
      "purl": "pkg:npm/acorn@5.7.3",
      "type": "library",
      "bom-ref": "pkg:npm/acorn@5.7.3"
    }
  ]
}
